<?xml version="1.0" encoding="UTF-8"?>
<svg width="50px" height="50px" viewBox="0 0 50 50" version="1.1" xmlns="http://www.w3.org/2000/svg" xmlns:xlink="http://www.w3.org/1999/xlink">
    <!-- Generator: Sketch 52.4 (67378) - http://www.bohemiancoding.com/sketch -->
    <title>multiple-11</title>
    <desc>Created with Sketch.</desc>
    <g id="Web" stroke="none" stroke-width="1" fill="none" fill-rule="evenodd">
        <g id="Admin-Module" transform="translate(-518.000000, -159.000000)" stroke-width="2">
            <g id="Content" transform="translate(80.000000, 100.000000)">
                <g id="multiple-11" transform="translate(439.000000, 60.000000)">
                    <path d="M15.6802623,20.4110164 C14.9224918,18.8144262 13.2944262,17.704918 11.4098361,17.704918 L5.1147541,17.704918 C2.50701639,17.704918 0.393442623,19.8184918 0.393442623,22.4262295 L0.393442623,28.7213115 L3.54098361,30.295082 L4.32786885,41.3114754 L12.9836066,41.3114754" id="Path" stroke="#1D7AFF"></path>
                    <circle id="Oval" stroke="#1D7AFF" stroke-linecap="square" cx="8.26229508" cy="8.26229508" r="4.72131148"></circle>
                    <path d="M32.3197377,20.4110164 C33.0775082,18.8144262 34.7055738,17.704918 36.5901639,17.704918 L42.8852459,17.704918 C45.4929836,17.704918 47.6065574,19.8184918 47.6065574,22.4262295 L47.6065574,28.7213115 L44.4590164,30.295082 L43.6721311,41.3114754 L35.0163934,41.3114754" id="Path" stroke="#1D7AFF"></path>
                    <circle id="Oval" stroke="#1D7AFF" stroke-linecap="square" cx="39.7377049" cy="8.26229508" r="4.72131148"></circle>
                    <path d="M28.7213115,47.6065574 L19.2786885,47.6065574 L18.4918033,35.0163934 L14.557377,34.2295082 L14.557377,24 C14.557377,20.523541 17.376,17.704918 20.852459,17.704918 L27.147541,17.704918 C30.624,17.704918 33.442623,20.523541 33.442623,24 L33.442623,34.2295082 L29.5081967,35.0163934 L28.7213115,47.6065574 Z" id="Path" stroke="#223979" fill="#E1EBFA" stroke-linecap="square"></path>
                    <circle id="Oval" stroke="#223979" fill="#E1EBFA" stroke-linecap="square" cx="24" cy="6.68852459" r="6.29508197"></circle>
                </g>
            </g>
        </g>
    </g>
</svg>